(footprint "Keystone_3034_1x20mm-CoinCell" (version 20211014) (generator pcbnew)
  (layer "F.Cu")
  (tedit 611AA450)
  (descr "Keystone 3034 SMD battery holder for 2020, 2025 and 2032 coincell batteries. http://www.keyelco.com/product-pdf.cfm?p=798")
  (tags "Keystone type 3034 coin cell retainer")
  (attr smd)
  (fp_text reference "REF**" (at 0 -11.5) (layer "F.SilkS")
    (effects (font (size 1 1) (thickness 0.15)))
    (tstamp e19886f8-c639-4d07-91e5-6f2d666bd623)
  )
  (fp_text value "Keystone_3034_1x20mm-CoinCell" (at 0 11.5) (layer "F.Fab")
    (effects (font (size 1 1) (thickness 0.15)))
    (tstamp eb308f18-85b8-4d95-9027-fb1ead352dca)
  )
  (fp_text user "${REFERENCE}" (at 0 -2.9) (layer "F.Fab")
    (effects (font (size 1 1) (thickness 0.15)))
    (tstamp 90a5f3df-fa41-4377-a9fd-7261673155b5)
  )
  (fp_line (start 8.7 -7.54) (end 10.78 -5.46) (layer "F.SilkS") (width 0.1) (tstamp 065b0fc8-6139-4d6a-8d0a-6f3cf9f5988f))
  (fp_line (start 10.78 3.63) (end 9.34 7.58) (layer "F.SilkS") (width 0.1) (tstamp 13e1b9bd-ff18-42ab-8ead-26fdebab4a29))
  (fp_line (start -10.78 3.63) (end -9.34 7.58) (layer "F.SilkS") (width 0.1) (tstamp 1aed0a8b-e5b0-480d-bc95-856a78c17410))
  (fp_line (start -10.78 -5.46) (end -10.78 -3) (layer "F.SilkS") (width 0.1) (tstamp 201c73ca-0e79-44bb-b08a-bb40b9b37b76))
  (fp_line (start -10.78 3) (end -10.78 3.63) (layer "F.SilkS") (width 0.1) (tstamp 2e6aa8a7-9f16-4d19-8116-9af67b3e0456))
  (fp_line (start 10.78 3) (end 10.78 3.63) (layer "F.SilkS") (width 0.1) (tstamp 693b4e7b-6240-4f72-92c5-fa4d9430136f))
  (fp_line (start 10.78 -5.46) (end 10.78 -3) (layer "F.SilkS") (width 0.1) (tstamp 6e68b5fa-f3e1-420d-b6d3-989c0fe3282c))
  (fp_line (start -8.7 -7.54) (end -10.78 -5.46) (layer "F.SilkS") (width 0.1) (tstamp 71a3a682-7a7a-4138-8d20-03188d702dab))
  (fp_line (start 8.7 -7.54) (end -8.7 -7.54) (layer "F.SilkS") (width 0.1) (tstamp e472659b-3003-40aa-bece-d348ab4d77b8))
  (fp_arc (start 9.325243 7.588169) (mid 7.90634 8.911668) (end 6 8.55) (layer "F.SilkS") (width 0.1) (tstamp 20f92d5d-6bb5-4112-99c2-42d8d74ced62))
  (fp_arc (start -6.0046 8.553536) (mid -0.002901 6.511341) (end 6 8.55) (layer "F.SilkS") (width 0.1) (tstamp 2101c13f-5586-4f33-80b1-21de5a76fccc))
  (fp_arc (start -6.003354 8.56653) (mid -7.921654 8.918738) (end -9.34 7.58) (layer "F.SilkS") (width 0.1) (tstamp 6d2b7fff-192e-4404-82f0-fb2f9eb5f231))
  (fp_circle (center 0 0) (end 0 10.25) (layer "Dwgs.User") (width 0.15) (fill none) (tstamp 52544460-e16f-42c3-9db0-5cc6c499cbb4))
  (fp_line (start -7.2 -7.64) (end -8.74 -7.64) (layer "F.CrtYd") (width 0.05) (tstamp 0adbbea0-82ba-45e8-9e31-91c2e632adf5))
  (fp_line (start 8.74 -7.64) (end 7.2 -7.64) (layer "F.CrtYd") (width 0.05) (tstamp 0c6fa324-1f3b-4c1c-9736-69ddd0ea13c6))
  (fp_line (start -10.88 -2.79) (end -11.87 -2.79) (layer "F.CrtYd") (width 0.05) (tstamp 3a0c1836-a377-4ce2-8a48-320762bc263e))
  (fp_line (start -11.87 -2.79) (end -11.87 2.79) (layer "F.CrtYd") (width 0.05) (tstamp 41bdcc4b-4dd7-4586-a89d-8a02c9154171))
  (fp_line (start -10.88 3.64) (end -9.44 7.62) (layer "F.CrtYd") (width 0.05) (tstamp 42706e06-6b49-4ae1-a49c-1b0282a98440))
  (fp_line (start 11.87 2.79) (end 11.87 -2.79) (layer "F.CrtYd") (width 0.05) (tstamp 4659c63e-7ba6-4a6b-af3d-6be54c0ae0e7))
  (fp_line (start 9.43 7.63) (end 10.88 3.64) (layer "F.CrtYd") (width 0.05) (tstamp 4679eb4f-5949-4a09-981e-bb4882ddf040))
  (fp_line (start -11.87 2.79) (end -10.88 2.79) (layer "F.CrtYd") (width 0.05) (tstamp 4a4b06dd-a79f-438b-8c44-4c57bb6b1279))
  (fp_line (start 10.88 -5.5) (end 8.74 -7.64) (layer "F.CrtYd") (width 0.05) (tstamp 5074c611-93a6-4e77-8420-745d9bdcaa69))
  (fp_line (start -10.88 2.79) (end -10.88 3.64) (layer "F.CrtYd") (width 0.05) (tstamp 76b232b0-b301-48ec-9384-defce127eec2))
  (fp_line (start 10.88 3.64) (end 10.88 2.79) (layer "F.CrtYd") (width 0.05) (tstamp 91cc2f30-258d-4a7b-bd66-a65c4e288ffc))
  (fp_line (start 11.87 -2.79) (end 10.88 -2.79) (layer "F.CrtYd") (width 0.05) (tstamp 99d0502e-3234-4b87-afbe-b042f6145303))
  (fp_line (start -10.88 -5.5) (end -10.88 -2.79) (layer "F.CrtYd") (width 0.05) (tstamp b9219ae2-6b2f-4ca0-b652-bcafbbe8bf28))
  (fp_line (start 10.88 2.79) (end 11.87 2.79) (layer "F.CrtYd") (width 0.05) (tstamp d1ae32b1-a101-4d50-9971-616182980885))
  (fp_line (start 10.88 -2.79) (end 10.88 -5.5) (layer "F.CrtYd") (width 0.05) (tstamp db0a0b6b-3438-418d-a11d-78387a5e53a5))
  (fp_line (start -8.74 -7.64) (end -10.88 -5.5) (layer "F.CrtYd") (width 0.05) (tstamp ef559aca-5a97-46f8-b087-95afb5e013d7))
  (fp_arc (start -5.956965 8.654604) (mid -7.953941 9.011629) (end -9.43 7.62) (layer "F.CrtYd") (width 0.05) (tstamp 06c3003c-3740-487a-bb39-cd7153a46b6b))
  (fp_arc (start 5.945368 8.650075) (mid -0.008883 10.496243) (end -5.96 8.64) (layer "F.CrtYd") (width 0.05) (tstamp 687e8368-7ba3-48f2-8ec0-3c30c867a71f))
  (fp_arc (start -7.199546 -7.640427) (mid 0.000312 -10.498075) (end 7.2 -7.64) (layer "F.CrtYd") (width 0.05) (tstamp dea2ab43-1247-4bfd-9ea9-7dc3b6ea7026))
  (fp_arc (start 9.415144 7.621341) (mid 7.944017 9.000493) (end 5.96 8.64) (layer "F.CrtYd") (width 0.05) (tstamp f27ca10b-bd04-44f2-ab64-4590132b9176))
  (fp_line (start -10.63 -5.4) (end -8.64 -7.39) (layer "F.Fab") (width 0.1) (tstamp 06ff69b0-78b3-4015-9873-0b758dc42f9b))
  (fp_line (start 10.63 -5.4) (end 10.63 3.6) (layer "F.Fab") (width 0.1) (tstamp 35cc07b3-d26d-4d49-b540-0bbab945e975))
  (fp_line (start 10.63 3.6) (end 9.19 7.53) (layer "F.Fab") (width 0.1) (tstamp 3f6acc0d-5d25-439a-a335-70c8276ebbf3))
  (fp_line (start -10.63 3.6) (end -10.63 -5.4) (layer "F.Fab") (width 0.1) (tstamp b029f754-5c35-46bc-8e26-eb9fe48af239))
  (fp_line (start -8.64 -7.39) (end 8.64 -7.39) (layer "F.Fab") (width 0.1) (tstamp db62cd5e-dbce-4b35-8ce7-500f72074cf2))
  (fp_line (start 8.64 -7.39) (end 10.63 -5.4) (layer "F.Fab") (width 0.1) (tstamp f4601c42-ff02-4840-be07-ed41c16d2a69))
  (fp_line (start -9.19 7.53) (end -10.63 3.6) (layer "F.Fab") (width 0.1) (tstamp ff8d76c1-3526-4dea-9d70-41a06d1ec125))
  (fp_arc (start -6.096146 8.438508) (mid -7.87328 8.768206) (end -9.19 7.53) (layer "F.Fab") (width 0.1) (tstamp 10996597-e4d1-4e75-b744-2ada4fc47338))
  (fp_arc (start 9.180727 7.528882) (mid 7.868698 8.760067) (end 6.1 8.43) (layer "F.Fab") (width 0.1) (tstamp 589fe0a8-7155-4315-8f27-7de2b55c2f8e))
  (fp_arc (start -6.094852 8.426043) (mid 0.003247 6.355257) (end 6.1 8.43) (layer "F.Fab") (width 0.1) (tstamp b081eeee-dec6-4b2f-b8a6-f13f29769459))
  (pad "1" smd rect (at -10.985 0) (size 1.27 5.08) (layers "F.Cu" "F.Paste" "F.Mask") (tstamp 66c65fb3-f299-4081-aa20-2b6a964f13c2))
  (pad "1" smd rect (at 10.985 0) (size 1.27 5.08) (layers "F.Cu" "F.Paste" "F.Mask") (tstamp d5160b36-c6ad-4a09-a63b-bb8bb1bb85fd))
  (pad "2" smd rect (at 0 0) (size 3.96 3.96) (layers "F.Cu" "F.Paste" "F.Mask") (tstamp b0634525-5e70-434e-b398-e7451bfc30cc))
  (model "${KICAD6_3DMODEL_DIR}/Battery.3dshapes/BatteryHolder_Keystone_3034_1x20mm.step"
    (offset (xyz 0 0 0))
    (scale (xyz 1 1 1))
    (rotate (xyz 0 0 0))
  )
)
